<mxfile host="app.diagrams.net" modified="2024-03-27T21:24:09.894Z" agent="Mozilla/5.0 (Windows NT 10.0; Win64; x64) AppleWebKit/537.36 (KHTML, like Gecko) Chrome/123.0.0.0 Safari/537.36" etag="cmBltt3YWlZp2AUkl4QM" version="24.2.0" type="device">
  <diagram name="Página-1" id="rqJuoPkAh6Y7qut6ieJX">
    <mxGraphModel dx="1719" dy="884" grid="1" gridSize="10" guides="1" tooltips="1" connect="1" arrows="1" fold="1" page="1" pageScale="1" pageWidth="827" pageHeight="1169" math="0" shadow="0">
      <root>
        <mxCell id="0" />
        <mxCell id="1" parent="0" />
        <mxCell id="bjRLOBOqQ6iqqejhgJ9H-22" style="edgeStyle=orthogonalEdgeStyle;rounded=0;orthogonalLoop=1;jettySize=auto;html=1;entryX=0.5;entryY=0;entryDx=0;entryDy=0;" edge="1" parent="1" source="bjRLOBOqQ6iqqejhgJ9H-1" target="bjRLOBOqQ6iqqejhgJ9H-2">
          <mxGeometry relative="1" as="geometry" />
        </mxCell>
        <mxCell id="bjRLOBOqQ6iqqejhgJ9H-1" value="INICIO" style="ellipse;whiteSpace=wrap;html=1;" vertex="1" parent="1">
          <mxGeometry x="354" y="40" width="120" height="50" as="geometry" />
        </mxCell>
        <mxCell id="bjRLOBOqQ6iqqejhgJ9H-23" style="edgeStyle=orthogonalEdgeStyle;rounded=0;orthogonalLoop=1;jettySize=auto;html=1;entryX=0.5;entryY=0;entryDx=0;entryDy=0;" edge="1" parent="1" source="bjRLOBOqQ6iqqejhgJ9H-2" target="bjRLOBOqQ6iqqejhgJ9H-3">
          <mxGeometry relative="1" as="geometry" />
        </mxCell>
        <mxCell id="bjRLOBOqQ6iqqejhgJ9H-2" value="&quot;please, insert a valid chin&quot;" style="shape=document;whiteSpace=wrap;html=1;boundedLbl=1;" vertex="1" parent="1">
          <mxGeometry x="304" y="110" width="220" height="60" as="geometry" />
        </mxCell>
        <mxCell id="bjRLOBOqQ6iqqejhgJ9H-24" style="edgeStyle=orthogonalEdgeStyle;rounded=0;orthogonalLoop=1;jettySize=auto;html=1;entryX=0.5;entryY=0;entryDx=0;entryDy=0;" edge="1" parent="1" source="bjRLOBOqQ6iqqejhgJ9H-3" target="bjRLOBOqQ6iqqejhgJ9H-4">
          <mxGeometry relative="1" as="geometry" />
        </mxCell>
        <mxCell id="bjRLOBOqQ6iqqejhgJ9H-3" value="insertar cadena de numeros" style="shape=parallelogram;perimeter=parallelogramPerimeter;whiteSpace=wrap;html=1;fixedSize=1;" vertex="1" parent="1">
          <mxGeometry x="301" y="200" width="226" height="40" as="geometry" />
        </mxCell>
        <mxCell id="bjRLOBOqQ6iqqejhgJ9H-25" style="edgeStyle=orthogonalEdgeStyle;rounded=0;orthogonalLoop=1;jettySize=auto;html=1;entryX=0.5;entryY=0;entryDx=0;entryDy=0;" edge="1" parent="1" source="bjRLOBOqQ6iqqejhgJ9H-4" target="bjRLOBOqQ6iqqejhgJ9H-5">
          <mxGeometry relative="1" as="geometry" />
        </mxCell>
        <mxCell id="bjRLOBOqQ6iqqejhgJ9H-4" value="convertir la cadena en un arreglo de caracteres" style="rounded=0;whiteSpace=wrap;html=1;" vertex="1" parent="1">
          <mxGeometry x="301" y="270" width="226" height="40" as="geometry" />
        </mxCell>
        <mxCell id="bjRLOBOqQ6iqqejhgJ9H-26" style="edgeStyle=orthogonalEdgeStyle;rounded=0;orthogonalLoop=1;jettySize=auto;html=1;entryX=0.5;entryY=0;entryDx=0;entryDy=0;" edge="1" parent="1" source="bjRLOBOqQ6iqqejhgJ9H-5" target="bjRLOBOqQ6iqqejhgJ9H-6">
          <mxGeometry relative="1" as="geometry" />
        </mxCell>
        <mxCell id="bjRLOBOqQ6iqqejhgJ9H-5" value="iniciar un contador N (chainN)" style="rounded=0;whiteSpace=wrap;html=1;" vertex="1" parent="1">
          <mxGeometry x="298" y="340" width="232" height="40" as="geometry" />
        </mxCell>
        <mxCell id="bjRLOBOqQ6iqqejhgJ9H-27" style="edgeStyle=orthogonalEdgeStyle;rounded=0;orthogonalLoop=1;jettySize=auto;html=1;entryX=0.5;entryY=0;entryDx=0;entryDy=0;" edge="1" parent="1" source="bjRLOBOqQ6iqqejhgJ9H-6" target="bjRLOBOqQ6iqqejhgJ9H-7">
          <mxGeometry relative="1" as="geometry" />
        </mxCell>
        <mxCell id="bjRLOBOqQ6iqqejhgJ9H-6" value="definir chainSize y dividendos&lt;div&gt;chainSize=dividendos&lt;/div&gt;" style="rounded=0;whiteSpace=wrap;html=1;" vertex="1" parent="1">
          <mxGeometry x="298" y="410" width="232" height="40" as="geometry" />
        </mxCell>
        <mxCell id="bjRLOBOqQ6iqqejhgJ9H-28" style="edgeStyle=orthogonalEdgeStyle;rounded=0;orthogonalLoop=1;jettySize=auto;html=1;" edge="1" parent="1" source="bjRLOBOqQ6iqqejhgJ9H-7" target="bjRLOBOqQ6iqqejhgJ9H-9">
          <mxGeometry relative="1" as="geometry" />
        </mxCell>
        <mxCell id="bjRLOBOqQ6iqqejhgJ9H-7" value="iniciar un contador D (dividendos)&lt;div&gt;iniciar un contador DE (divisores exitosos)&lt;/div&gt;" style="rounded=0;whiteSpace=wrap;html=1;" vertex="1" parent="1">
          <mxGeometry x="293" y="480" width="242" height="40" as="geometry" />
        </mxCell>
        <mxCell id="bjRLOBOqQ6iqqejhgJ9H-29" style="edgeStyle=orthogonalEdgeStyle;rounded=0;orthogonalLoop=1;jettySize=auto;html=1;entryX=0.5;entryY=0;entryDx=0;entryDy=0;" edge="1" parent="1" source="bjRLOBOqQ6iqqejhgJ9H-9" target="bjRLOBOqQ6iqqejhgJ9H-14">
          <mxGeometry relative="1" as="geometry" />
        </mxCell>
        <mxCell id="bjRLOBOqQ6iqqejhgJ9H-9" value="establecer los divisores&amp;nbsp;&lt;div&gt;&lt;span style=&quot;background-color: initial;&quot;&gt;divisores = dividendo&lt;/span&gt;&lt;/div&gt;" style="rounded=0;whiteSpace=wrap;html=1;" vertex="1" parent="1">
          <mxGeometry x="290" y="550" width="247" height="60" as="geometry" />
        </mxCell>
        <mxCell id="bjRLOBOqQ6iqqejhgJ9H-31" style="edgeStyle=orthogonalEdgeStyle;rounded=0;orthogonalLoop=1;jettySize=auto;html=1;exitX=0.5;exitY=1;exitDx=0;exitDy=0;entryX=0;entryY=0.5;entryDx=0;entryDy=0;" edge="1" parent="1" source="bjRLOBOqQ6iqqejhgJ9H-11" target="bjRLOBOqQ6iqqejhgJ9H-12">
          <mxGeometry relative="1" as="geometry" />
        </mxCell>
        <mxCell id="bjRLOBOqQ6iqqejhgJ9H-60" style="edgeStyle=orthogonalEdgeStyle;rounded=0;orthogonalLoop=1;jettySize=auto;html=1;entryX=0;entryY=0.5;entryDx=0;entryDy=0;" edge="1" parent="1" source="bjRLOBOqQ6iqqejhgJ9H-11" target="bjRLOBOqQ6iqqejhgJ9H-32">
          <mxGeometry relative="1" as="geometry" />
        </mxCell>
        <mxCell id="bjRLOBOqQ6iqqejhgJ9H-11" value="N / D = X (0)" style="rhombus;whiteSpace=wrap;html=1;" vertex="1" parent="1">
          <mxGeometry x="83" y="951" width="230" height="80" as="geometry" />
        </mxCell>
        <mxCell id="bjRLOBOqQ6iqqejhgJ9H-45" style="edgeStyle=orthogonalEdgeStyle;rounded=0;orthogonalLoop=1;jettySize=auto;html=1;entryX=0.5;entryY=1;entryDx=0;entryDy=0;" edge="1" parent="1" source="bjRLOBOqQ6iqqejhgJ9H-12" target="bjRLOBOqQ6iqqejhgJ9H-13">
          <mxGeometry relative="1" as="geometry" />
        </mxCell>
        <mxCell id="bjRLOBOqQ6iqqejhgJ9H-12" value="agregar 1 al DE counter&lt;div&gt;(divisores exitosos)&lt;/div&gt;" style="rounded=0;whiteSpace=wrap;html=1;" vertex="1" parent="1">
          <mxGeometry x="326" y="1190" width="180" height="50" as="geometry" />
        </mxCell>
        <mxCell id="bjRLOBOqQ6iqqejhgJ9H-44" style="edgeStyle=orthogonalEdgeStyle;rounded=0;orthogonalLoop=1;jettySize=auto;html=1;" edge="1" parent="1" source="bjRLOBOqQ6iqqejhgJ9H-13" target="bjRLOBOqQ6iqqejhgJ9H-20">
          <mxGeometry relative="1" as="geometry" />
        </mxCell>
        <mxCell id="bjRLOBOqQ6iqqejhgJ9H-46" style="edgeStyle=orthogonalEdgeStyle;rounded=0;orthogonalLoop=1;jettySize=auto;html=1;entryX=0.5;entryY=1;entryDx=0;entryDy=0;" edge="1" parent="1" source="bjRLOBOqQ6iqqejhgJ9H-13" target="bjRLOBOqQ6iqqejhgJ9H-32">
          <mxGeometry relative="1" as="geometry" />
        </mxCell>
        <mxCell id="bjRLOBOqQ6iqqejhgJ9H-13" value="divisor = 0" style="rhombus;whiteSpace=wrap;html=1;" vertex="1" parent="1">
          <mxGeometry x="299" y="1080" width="234" height="80" as="geometry" />
        </mxCell>
        <mxCell id="bjRLOBOqQ6iqqejhgJ9H-30" style="edgeStyle=orthogonalEdgeStyle;rounded=0;orthogonalLoop=1;jettySize=auto;html=1;entryX=0.5;entryY=0;entryDx=0;entryDy=0;" edge="1" parent="1" source="bjRLOBOqQ6iqqejhgJ9H-14" target="bjRLOBOqQ6iqqejhgJ9H-11">
          <mxGeometry relative="1" as="geometry" />
        </mxCell>
        <mxCell id="bjRLOBOqQ6iqqejhgJ9H-14" value="extraer el dividendo y divisor operar:&lt;div&gt;dividendoN / divisor&lt;/div&gt;" style="rounded=0;whiteSpace=wrap;html=1;" vertex="1" parent="1">
          <mxGeometry x="303" y="644" width="222" height="60" as="geometry" />
        </mxCell>
        <mxCell id="bjRLOBOqQ6iqqejhgJ9H-39" style="edgeStyle=orthogonalEdgeStyle;rounded=0;orthogonalLoop=1;jettySize=auto;html=1;entryX=1;entryY=0.5;entryDx=0;entryDy=0;exitX=0;exitY=0.5;exitDx=0;exitDy=0;" edge="1" parent="1" source="bjRLOBOqQ6iqqejhgJ9H-16" target="bjRLOBOqQ6iqqejhgJ9H-9">
          <mxGeometry relative="1" as="geometry">
            <mxPoint x="321" y="579.9999999999998" as="targetPoint" />
          </mxGeometry>
        </mxCell>
        <mxCell id="bjRLOBOqQ6iqqejhgJ9H-16" value="agregar 1 al Dcounter&lt;div&gt;(dividendos)&lt;/div&gt;" style="rounded=0;whiteSpace=wrap;html=1;" vertex="1" parent="1">
          <mxGeometry x="638" y="550" width="150" height="60" as="geometry" />
        </mxCell>
        <mxCell id="bjRLOBOqQ6iqqejhgJ9H-17" value="TRUE" style="text;html=1;align=center;verticalAlign=middle;resizable=0;points=[];autosize=1;strokeColor=none;fillColor=none;" vertex="1" parent="1">
          <mxGeometry x="198" y="1030" width="60" height="30" as="geometry" />
        </mxCell>
        <mxCell id="bjRLOBOqQ6iqqejhgJ9H-18" value="FALSE" style="text;html=1;align=center;verticalAlign=middle;resizable=0;points=[];autosize=1;strokeColor=none;fillColor=none;" vertex="1" parent="1">
          <mxGeometry x="326" y="960" width="60" height="30" as="geometry" />
        </mxCell>
        <mxCell id="bjRLOBOqQ6iqqejhgJ9H-57" style="edgeStyle=orthogonalEdgeStyle;rounded=0;orthogonalLoop=1;jettySize=auto;html=1;entryX=0.5;entryY=1;entryDx=0;entryDy=0;" edge="1" parent="1" source="bjRLOBOqQ6iqqejhgJ9H-19" target="bjRLOBOqQ6iqqejhgJ9H-16">
          <mxGeometry relative="1" as="geometry" />
        </mxCell>
        <mxCell id="bjRLOBOqQ6iqqejhgJ9H-58" style="edgeStyle=orthogonalEdgeStyle;rounded=0;orthogonalLoop=1;jettySize=auto;html=1;entryX=0;entryY=0.5;entryDx=0;entryDy=0;" edge="1" parent="1" source="bjRLOBOqQ6iqqejhgJ9H-19" target="bjRLOBOqQ6iqqejhgJ9H-55">
          <mxGeometry relative="1" as="geometry" />
        </mxCell>
        <mxCell id="bjRLOBOqQ6iqqejhgJ9H-19" value="chainN&amp;gt;chainSize" style="rhombus;whiteSpace=wrap;html=1;" vertex="1" parent="1">
          <mxGeometry x="595" y="790" width="236" height="80" as="geometry" />
        </mxCell>
        <mxCell id="bjRLOBOqQ6iqqejhgJ9H-59" style="edgeStyle=orthogonalEdgeStyle;rounded=0;orthogonalLoop=1;jettySize=auto;html=1;entryX=0.5;entryY=0;entryDx=0;entryDy=0;" edge="1" parent="1" source="bjRLOBOqQ6iqqejhgJ9H-20" target="bjRLOBOqQ6iqqejhgJ9H-48">
          <mxGeometry relative="1" as="geometry" />
        </mxCell>
        <mxCell id="bjRLOBOqQ6iqqejhgJ9H-20" value="DE = 2 ?" style="rhombus;whiteSpace=wrap;html=1;" vertex="1" parent="1">
          <mxGeometry x="604" y="1080" width="220" height="80" as="geometry" />
        </mxCell>
        <mxCell id="bjRLOBOqQ6iqqejhgJ9H-61" style="edgeStyle=orthogonalEdgeStyle;rounded=0;orthogonalLoop=1;jettySize=auto;html=1;entryX=1;entryY=0.5;entryDx=0;entryDy=0;exitX=0.75;exitY=0;exitDx=0;exitDy=0;" edge="1" parent="1" source="bjRLOBOqQ6iqqejhgJ9H-32" target="bjRLOBOqQ6iqqejhgJ9H-14">
          <mxGeometry relative="1" as="geometry" />
        </mxCell>
        <mxCell id="bjRLOBOqQ6iqqejhgJ9H-32" value="agrear -1 al contador de divisores" style="rounded=0;whiteSpace=wrap;html=1;" vertex="1" parent="1">
          <mxGeometry x="414" y="960" width="175" height="60" as="geometry" />
        </mxCell>
        <mxCell id="bjRLOBOqQ6iqqejhgJ9H-37" value="TRUE" style="text;html=1;align=center;verticalAlign=middle;resizable=0;points=[];autosize=1;strokeColor=none;fillColor=none;" vertex="1" parent="1">
          <mxGeometry x="533" y="1090" width="60" height="30" as="geometry" />
        </mxCell>
        <mxCell id="bjRLOBOqQ6iqqejhgJ9H-40" value="FALSE" style="text;html=1;align=center;verticalAlign=middle;resizable=0;points=[];autosize=1;strokeColor=none;fillColor=none;" vertex="1" parent="1">
          <mxGeometry x="560" y="1050" width="60" height="30" as="geometry" />
        </mxCell>
        <mxCell id="bjRLOBOqQ6iqqejhgJ9H-47" value="FALSE" style="text;html=1;align=center;verticalAlign=middle;resizable=0;points=[];autosize=1;strokeColor=none;fillColor=none;" vertex="1" parent="1">
          <mxGeometry x="644" y="1160" width="60" height="30" as="geometry" />
        </mxCell>
        <mxCell id="bjRLOBOqQ6iqqejhgJ9H-48" value="no es un numero primo" style="shape=document;whiteSpace=wrap;html=1;boundedLbl=1;" vertex="1" parent="1">
          <mxGeometry x="631.5" y="1213" width="165" height="50" as="geometry" />
        </mxCell>
        <mxCell id="bjRLOBOqQ6iqqejhgJ9H-49" value="TRUE" style="text;html=1;align=center;verticalAlign=middle;resizable=0;points=[];autosize=1;strokeColor=none;fillColor=none;" vertex="1" parent="1">
          <mxGeometry x="714" y="1060" width="60" height="30" as="geometry" />
        </mxCell>
        <mxCell id="bjRLOBOqQ6iqqejhgJ9H-53" style="edgeStyle=orthogonalEdgeStyle;rounded=0;orthogonalLoop=1;jettySize=auto;html=1;entryX=0.5;entryY=1;entryDx=0;entryDy=0;" edge="1" parent="1" source="bjRLOBOqQ6iqqejhgJ9H-51" target="bjRLOBOqQ6iqqejhgJ9H-19">
          <mxGeometry relative="1" as="geometry" />
        </mxCell>
        <mxCell id="bjRLOBOqQ6iqqejhgJ9H-51" value="es un numero primo" style="shape=document;whiteSpace=wrap;html=1;boundedLbl=1;" vertex="1" parent="1">
          <mxGeometry x="631.5" y="990" width="162.5" height="40" as="geometry" />
        </mxCell>
        <mxCell id="bjRLOBOqQ6iqqejhgJ9H-52" style="edgeStyle=orthogonalEdgeStyle;rounded=0;orthogonalLoop=1;jettySize=auto;html=1;entryX=0.508;entryY=1;entryDx=0;entryDy=0;entryPerimeter=0;" edge="1" parent="1" source="bjRLOBOqQ6iqqejhgJ9H-20" target="bjRLOBOqQ6iqqejhgJ9H-51">
          <mxGeometry relative="1" as="geometry" />
        </mxCell>
        <mxCell id="bjRLOBOqQ6iqqejhgJ9H-54" value="TRUE" style="text;html=1;align=center;verticalAlign=middle;resizable=0;points=[];autosize=1;strokeColor=none;fillColor=none;" vertex="1" parent="1">
          <mxGeometry x="834" y="798" width="60" height="30" as="geometry" />
        </mxCell>
        <mxCell id="bjRLOBOqQ6iqqejhgJ9H-55" value="FIN" style="ellipse;whiteSpace=wrap;html=1;" vertex="1" parent="1">
          <mxGeometry x="894" y="805" width="100" height="50" as="geometry" />
        </mxCell>
        <mxCell id="bjRLOBOqQ6iqqejhgJ9H-56" value="FALSE" style="text;html=1;align=center;verticalAlign=middle;resizable=0;points=[];autosize=1;strokeColor=none;fillColor=none;" vertex="1" parent="1">
          <mxGeometry x="644" y="768" width="60" height="30" as="geometry" />
        </mxCell>
      </root>
    </mxGraphModel>
  </diagram>
</mxfile>
